<svg
    xmlns="http://www.w3.org/2000/svg" xmlns:xlink="http://www.w3.org/1999/xlink"
    version="1.1"
    id="Layer_1"
    x="0px"
    y="0px"
    style="enable-background:new 0 0 600 600;"
    xml:space="preserve"
    viewBox="99.8 267.9 400.1 64.3"
>
    <style type="text/css">
        .st0{fill:#0000FF;}
    </style>
    <g>
        <g>
            <path class="st0"
                  d="M242.7,309.2c0-14,9.2-23.1,23.1-23.1c13.5,0,22.6,8.4,22.8,21.6c0,1.3-0.1,2.8-0.4,4.2h-32.7v0.6    c0.3,6.4,4.4,10.3,10.6,10.3c5,0,8.5-2.2,9.5-6.4h12.2c-1.4,8.8-9.2,15.8-21.2,15.8C251.7,332.2,242.7,323.1,242.7,309.2z     M276.2,303.9c-0.9-5.5-4.6-8.6-10.3-8.6c-5.3,0-9.4,3.2-10.1,8.6H276.2z"></path>
            <path class="st0"
                  d="M337.8,306.7v25h-12.4v-23.7c0-7.6-2.9-11.7-9.1-11.7c-6.4,0-10.1,4.6-10.1,12.4v23h-12.4v-45h10.8l0.7,3.3    c0.2,0.9,1.3,1.3,2,0.7c2.8-2.6,6.6-4.5,12.4-4.5C329.5,286.1,337.8,291.2,337.8,306.7z"></path>
            <path class="st0"
                  d="M342.8,309.2c0-14,9.2-23.1,23.1-23.1c13.5,0,22.6,8.4,22.8,21.6c0,1.3-0.1,2.8-0.4,4.2h-32.7v0.6    c0.3,6.4,4.4,10.3,10.6,10.3c5,0,8.5-2.2,9.5-6.4H388c-1.4,8.8-9.2,15.8-21.2,15.8C351.9,332.2,342.8,323.1,342.8,309.2z     M376.3,303.9c-0.9-5.5-4.6-8.6-10.3-8.6c-5.3,0-9.4,3.2-10.1,8.6H376.3z"></path>
            <path class="st0"
                  d="M404.5,316.6c0.4,3.9,3.9,6.7,9.9,6.7c5.2,0,8.3-1.7,8.3-4.8c0-3.7-3.1-3.9-10.3-4.9    c-10.5-1.2-18.7-3.6-18.7-12.9c0-8.9,7.8-14.8,19.4-14.7c12.1,0,20.4,5.3,21,14.5h-11.8c-0.4-3.6-3.8-5.8-8.8-5.8    c-4.8,0-8,1.8-8,4.6c0,3.4,3.9,3.8,10.3,4.6c10.3,1.1,18.9,3.4,18.9,13.6c0,8.9-8.4,14.6-20.5,14.6c-12.5,0-21-5.9-21.6-15.5    H404.5z"></path>
            <path class="st0"
                  d="M439.3,274.9c0-4,3.2-7,7.2-7c4,0,7.2,3,7.2,7c0,3.9-3.2,6.9-7.2,6.9C442.5,281.8,439.3,278.8,439.3,274.9z     M440.3,286.6h12.4v45h-12.4V286.6z"></path>
            <path class="st0"
                  d="M469.7,316.6c0.4,3.9,3.9,6.7,9.9,6.7c5.2,0,8.3-1.7,8.3-4.8c0-3.7-3.1-3.9-10.3-4.9    c-10.5-1.2-18.7-3.6-18.7-12.9c0-8.9,7.8-14.8,19.4-14.7c12.1,0,20.4,5.3,21,14.5h-11.8c-0.4-3.6-3.8-5.8-8.8-5.8    c-4.8,0-8,1.8-8,4.6c0,3.4,3.9,3.8,10.3,4.6c10.3,1.1,18.9,3.4,18.9,13.6c0,8.9-8.4,14.6-20.5,14.6c-12.5,0-21-5.9-21.6-15.5    H469.7z"></path>
            <path class="st0"
                  d="M209.9,297.5V308h11.7c1.1,0,3.9,0.5,2.7,4c-2.3,6.3-8.5,9.1-14.5,9.1c-10.5,0-16.6-8.2-16.6-20.1    c0-11.8,6.4-20.1,16.6-20.1c7.5,0,12.4,4.5,14,11.2h13.1c-1.6-13.2-11.9-22.2-26.6-22.3c-17.1-0.1-30.7,14.1-30.7,31.2    c0,18.8,11.6,31.2,29.2,31.2c6.8,0,12-2.2,15.5-5.3c1.1-1,2.8-0.3,3.1,1.1l0.7,3.7h9.2v-34.1H209.9z"></path>
        </g>
        <path class="st0"
              d="M145.7,325.3c0-6.1,4.9-11,11-11h6.5v-16.5h-16.5v6.3c0,6-4.8,10.9-10.9,11l0,0l-19.5,0v-16.4v-0.1v-12.1h23.6   v-16.5h-23.6h-7.9c-4.7,0-8.6,3.8-8.6,8.6v7.8v0.1v12.1v0.1v16.4v7.9c0,4.7,3.8,8.6,8.6,8.6h37.2V325.3z"></path>
    </g>
</svg>
